%YAML 1.1
%TAG !u! tag:unity3d.com,2011:
--- !u!114 &11400000
MonoBehaviour:
  m_ObjectHideFlags: 0
  m_CorrespondingSourceObject: {fileID: 0}
  m_PrefabInstance: {fileID: 0}
  m_PrefabAsset: {fileID: 0}
  m_GameObject: {fileID: 0}
  m_Enabled: 1
  m_EditorHideFlags: 0
  m_Script: {fileID: 11500000, guid: 5da147ab8f90e8448a0a2ab8b34dd7dd, type: 3}
  m_Name: FPSCharacterOverview
  m_EditorClassIdentifier: 
  AllCharacters:
  - {fileID: 11400000, guid: 235582c3b72c23a40b625cfec2c73b4e, type: 2}
  - {fileID: 11400000, guid: 627c415fff25da74d831e13cd719c5c4, type: 2}
