%YAML 1.1
%TAG !u! tag:unity3d.com,2011:
--- !u!114 &11400000
MonoBehaviour:
  m_ObjectHideFlags: 0
  m_CorrespondingSourceObject: {fileID: 0}
  m_PrefabInstance: {fileID: 0}
  m_PrefabAsset: {fileID: 0}
  m_GameObject: {fileID: 0}
  m_Enabled: 1
  m_EditorHideFlags: 0
  m_Script: {fileID: 11500000, guid: e48f292eb34d0b2458e1775a85f68d5c, type: 3}
  m_Name: A
  m_EditorClassIdentifier: 
  serializationData:
    SerializedFormat: 2
    SerializedBytes: 
    ReferencedUnityObjects: []
    SerializedBytesString: 
    Prefab: {fileID: 0}
    PrefabModificationsReferencedUnityObjects: []
    PrefabModifications: []
    SerializationNodes:
    - Name: Inventory
      Entry: 7
      Data: 0|Sirenix.OdinInspector.Demos.FPSEditor.FPSItemSlot[,], Assembly-CSharp
    - Name: 
      Entry: 12
      Data: 72
    - Name: ranks
      Entry: 1
      Data: 12|6
    - Name: 
      Entry: 7
      Data: Sirenix.OdinInspector.Demos.FPSEditor.FPSItemSlot, Assembly-CSharp
    - Name: ItemCount
      Entry: 3
      Data: 0
    - Name: Item
      Entry: 6
      Data: 
    - Name: 
      Entry: 8
      Data: 
    - Name: 
      Entry: 7
      Data: Sirenix.OdinInspector.Demos.FPSEditor.FPSItemSlot, Assembly-CSharp
    - Name: ItemCount
      Entry: 3
      Data: 0
    - Name: Item
      Entry: 6
      Data: 
    - Name: 
      Entry: 8
      Data: 
    - Name: 
      Entry: 7
      Data: Sirenix.OdinInspector.Demos.FPSEditor.FPSItemSlot, Assembly-CSharp
    - Name: ItemCount
      Entry: 3
      Data: 0
    - Name: Item
      Entry: 6
      Data: 
    - Name: 
      Entry: 8
      Data: 
    - Name: 
      Entry: 7
      Data: Sirenix.OdinInspector.Demos.FPSEditor.FPSItemSlot, Assembly-CSharp
    - Name: ItemCount
      Entry: 3
      Data: 0
    - Name: Item
      Entry: 6
      Data: 
    - Name: 
      Entry: 8
      Data: 
    - Name: 
      Entry: 7
      Data: Sirenix.OdinInspector.Demos.FPSEditor.FPSItemSlot, Assembly-CSharp
    - Name: ItemCount
      Entry: 3
      Data: 0
    - Name: Item
      Entry: 6
      Data: 
    - Name: 
      Entry: 8
      Data: 
    - Name: 
      Entry: 7
      Data: Sirenix.OdinInspector.Demos.FPSEditor.FPSItemSlot, Assembly-CSharp
    - Name: ItemCount
      Entry: 3
      Data: 0
    - Name: Item
      Entry: 6
      Data: 
    - Name: 
      Entry: 8
      Data: 
    - Name: 
      Entry: 7
      Data: Sirenix.OdinInspector.Demos.FPSEditor.FPSItemSlot, Assembly-CSharp
    - Name: ItemCount
      Entry: 3
      Data: 0
    - Name: Item
      Entry: 6
      Data: 
    - Name: 
      Entry: 8
      Data: 
    - Name: 
      Entry: 7
      Data: Sirenix.OdinInspector.Demos.FPSEditor.FPSItemSlot, Assembly-CSharp
    - Name: ItemCount
      Entry: 3
      Data: 0
    - Name: Item
      Entry: 6
      Data: 
    - Name: 
      Entry: 8
      Data: 
    - Name: 
      Entry: 7
      Data: Sirenix.OdinInspector.Demos.FPSEditor.FPSItemSlot, Assembly-CSharp
    - Name: ItemCount
      Entry: 3
      Data: 0
    - Name: Item
      Entry: 6
      Data: 
    - Name: 
      Entry: 8
      Data: 
    - Name: 
      Entry: 7
      Data: Sirenix.OdinInspector.Demos.FPSEditor.FPSItemSlot, Assembly-CSharp
    - Name: ItemCount
      Entry: 3
      Data: 0
    - Name: Item
      Entry: 6
      Data: 
    - Name: 
      Entry: 8
      Data: 
    - Name: 
      Entry: 7
      Data: Sirenix.OdinInspector.Demos.FPSEditor.FPSItemSlot, Assembly-CSharp
    - Name: ItemCount
      Entry: 3
      Data: 0
    - Name: Item
      Entry: 6
      Data: 
    - Name: 
      Entry: 8
      Data: 
    - Name: 
      Entry: 7
      Data: Sirenix.OdinInspector.Demos.FPSEditor.FPSItemSlot, Assembly-CSharp
    - Name: ItemCount
      Entry: 3
      Data: 0
    - Name: Item
      Entry: 6
      Data: 
    - Name: 
      Entry: 8
      Data: 
    - Name: 
      Entry: 7
      Data: Sirenix.OdinInspector.Demos.FPSEditor.FPSItemSlot, Assembly-CSharp
    - Name: ItemCount
      Entry: 3
      Data: 0
    - Name: Item
      Entry: 6
      Data: 
    - Name: 
      Entry: 8
      Data: 
    - Name: 
      Entry: 7
      Data: Sirenix.OdinInspector.Demos.FPSEditor.FPSItemSlot, Assembly-CSharp
    - Name: ItemCount
      Entry: 3
      Data: 0
    - Name: Item
      Entry: 6
      Data: 
    - Name: 
      Entry: 8
      Data: 
    - Name: 
      Entry: 7
      Data: Sirenix.OdinInspector.Demos.FPSEditor.FPSItemSlot, Assembly-CSharp
    - Name: ItemCount
      Entry: 3
      Data: 0
    - Name: Item
      Entry: 6
      Data: 
    - Name: 
      Entry: 8
      Data: 
    - Name: 
      Entry: 7
      Data: Sirenix.OdinInspector.Demos.FPSEditor.FPSItemSlot, Assembly-CSharp
    - Name: ItemCount
      Entry: 3
      Data: 0
    - Name: Item
      Entry: 6
      Data: 
    - Name: 
      Entry: 8
      Data: 
    - Name: 
      Entry: 7
      Data: Sirenix.OdinInspector.Demos.FPSEditor.FPSItemSlot, Assembly-CSharp
    - Name: ItemCount
      Entry: 3
      Data: 0
    - Name: Item
      Entry: 6
      Data: 
    - Name: 
      Entry: 8
      Data: 
    - Name: 
      Entry: 7
      Data: Sirenix.OdinInspector.Demos.FPSEditor.FPSItemSlot, Assembly-CSharp
    - Name: ItemCount
      Entry: 3
      Data: 0
    - Name: Item
      Entry: 6
      Data: 
    - Name: 
      Entry: 8
      Data: 
    - Name: 
      Entry: 7
      Data: Sirenix.OdinInspector.Demos.FPSEditor.FPSItemSlot, Assembly-CSharp
    - Name: ItemCount
      Entry: 3
      Data: 0
    - Name: Item
      Entry: 6
      Data: 
    - Name: 
      Entry: 8
      Data: 
    - Name: 
      Entry: 7
      Data: Sirenix.OdinInspector.Demos.FPSEditor.FPSItemSlot, Assembly-CSharp
    - Name: ItemCount
      Entry: 3
      Data: 0
    - Name: Item
      Entry: 6
      Data: 
    - Name: 
      Entry: 8
      Data: 
    - Name: 
      Entry: 7
      Data: Sirenix.OdinInspector.Demos.FPSEditor.FPSItemSlot, Assembly-CSharp
    - Name: ItemCount
      Entry: 3
      Data: 0
    - Name: Item
      Entry: 6
      Data: 
    - Name: 
      Entry: 8
      Data: 
    - Name: 
      Entry: 7
      Data: Sirenix.OdinInspector.Demos.FPSEditor.FPSItemSlot, Assembly-CSharp
    - Name: ItemCount
      Entry: 3
      Data: 0
    - Name: Item
      Entry: 6
      Data: 
    - Name: 
      Entry: 8
      Data: 
    - Name: 
      Entry: 7
      Data: Sirenix.OdinInspector.Demos.FPSEditor.FPSItemSlot, Assembly-CSharp
    - Name: ItemCount
      Entry: 3
      Data: 0
    - Name: Item
      Entry: 6
      Data: 
    - Name: 
      Entry: 8
      Data: 
    - Name: 
      Entry: 7
      Data: Sirenix.OdinInspector.Demos.FPSEditor.FPSItemSlot, Assembly-CSharp
    - Name: ItemCount
      Entry: 3
      Data: 0
    - Name: Item
      Entry: 6
      Data: 
    - Name: 
      Entry: 8
      Data: 
    - Name: 
      Entry: 7
      Data: Sirenix.OdinInspector.Demos.FPSEditor.FPSItemSlot, Assembly-CSharp
    - Name: ItemCount
      Entry: 3
      Data: 0
    - Name: Item
      Entry: 6
      Data: 
    - Name: 
      Entry: 8
      Data: 
    - Name: 
      Entry: 7
      Data: Sirenix.OdinInspector.Demos.FPSEditor.FPSItemSlot, Assembly-CSharp
    - Name: ItemCount
      Entry: 3
      Data: 0
    - Name: Item
      Entry: 6
      Data: 
    - Name: 
      Entry: 8
      Data: 
    - Name: 
      Entry: 7
      Data: Sirenix.OdinInspector.Demos.FPSEditor.FPSItemSlot, Assembly-CSharp
    - Name: ItemCount
      Entry: 3
      Data: 0
    - Name: Item
      Entry: 6
      Data: 
    - Name: 
      Entry: 8
      Data: 
    - Name: 
      Entry: 7
      Data: Sirenix.OdinInspector.Demos.FPSEditor.FPSItemSlot, Assembly-CSharp
    - Name: ItemCount
      Entry: 3
      Data: 0
    - Name: Item
      Entry: 6
      Data: 
    - Name: 
      Entry: 8
      Data: 
    - Name: 
      Entry: 7
      Data: Sirenix.OdinInspector.Demos.FPSEditor.FPSItemSlot, Assembly-CSharp
    - Name: ItemCount
      Entry: 3
      Data: 0
    - Name: Item
      Entry: 6
      Data: 
    - Name: 
      Entry: 8
      Data: 
    - Name: 
      Entry: 7
      Data: Sirenix.OdinInspector.Demos.FPSEditor.FPSItemSlot, Assembly-CSharp
    - Name: ItemCount
      Entry: 3
      Data: 0
    - Name: Item
      Entry: 6
      Data: 
    - Name: 
      Entry: 8
      Data: 
    - Name: 
      Entry: 7
      Data: Sirenix.OdinInspector.Demos.FPSEditor.FPSItemSlot, Assembly-CSharp
    - Name: ItemCount
      Entry: 3
      Data: 0
    - Name: Item
      Entry: 6
      Data: 
    - Name: 
      Entry: 8
      Data: 
    - Name: 
      Entry: 7
      Data: Sirenix.OdinInspector.Demos.FPSEditor.FPSItemSlot, Assembly-CSharp
    - Name: ItemCount
      Entry: 3
      Data: 0
    - Name: Item
      Entry: 6
      Data: 
    - Name: 
      Entry: 8
      Data: 
    - Name: 
      Entry: 7
      Data: Sirenix.OdinInspector.Demos.FPSEditor.FPSItemSlot, Assembly-CSharp
    - Name: ItemCount
      Entry: 3
      Data: 0
    - Name: Item
      Entry: 6
      Data: 
    - Name: 
      Entry: 8
      Data: 
    - Name: 
      Entry: 7
      Data: Sirenix.OdinInspector.Demos.FPSEditor.FPSItemSlot, Assembly-CSharp
    - Name: ItemCount
      Entry: 3
      Data: 0
    - Name: Item
      Entry: 6
      Data: 
    - Name: 
      Entry: 8
      Data: 
    - Name: 
      Entry: 7
      Data: Sirenix.OdinInspector.Demos.FPSEditor.FPSItemSlot, Assembly-CSharp
    - Name: ItemCount
      Entry: 3
      Data: 0
    - Name: Item
      Entry: 6
      Data: 
    - Name: 
      Entry: 8
      Data: 
    - Name: 
      Entry: 7
      Data: Sirenix.OdinInspector.Demos.FPSEditor.FPSItemSlot, Assembly-CSharp
    - Name: ItemCount
      Entry: 3
      Data: 0
    - Name: Item
      Entry: 6
      Data: 
    - Name: 
      Entry: 8
      Data: 
    - Name: 
      Entry: 7
      Data: Sirenix.OdinInspector.Demos.FPSEditor.FPSItemSlot, Assembly-CSharp
    - Name: ItemCount
      Entry: 3
      Data: 0
    - Name: Item
      Entry: 6
      Data: 
    - Name: 
      Entry: 8
      Data: 
    - Name: 
      Entry: 7
      Data: Sirenix.OdinInspector.Demos.FPSEditor.FPSItemSlot, Assembly-CSharp
    - Name: ItemCount
      Entry: 3
      Data: 0
    - Name: Item
      Entry: 6
      Data: 
    - Name: 
      Entry: 8
      Data: 
    - Name: 
      Entry: 7
      Data: Sirenix.OdinInspector.Demos.FPSEditor.FPSItemSlot, Assembly-CSharp
    - Name: ItemCount
      Entry: 3
      Data: 0
    - Name: Item
      Entry: 6
      Data: 
    - Name: 
      Entry: 8
      Data: 
    - Name: 
      Entry: 7
      Data: Sirenix.OdinInspector.Demos.FPSEditor.FPSItemSlot, Assembly-CSharp
    - Name: ItemCount
      Entry: 3
      Data: 0
    - Name: Item
      Entry: 6
      Data: 
    - Name: 
      Entry: 8
      Data: 
    - Name: 
      Entry: 7
      Data: Sirenix.OdinInspector.Demos.FPSEditor.FPSItemSlot, Assembly-CSharp
    - Name: ItemCount
      Entry: 3
      Data: 0
    - Name: Item
      Entry: 6
      Data: 
    - Name: 
      Entry: 8
      Data: 
    - Name: 
      Entry: 7
      Data: Sirenix.OdinInspector.Demos.FPSEditor.FPSItemSlot, Assembly-CSharp
    - Name: ItemCount
      Entry: 3
      Data: 0
    - Name: Item
      Entry: 6
      Data: 
    - Name: 
      Entry: 8
      Data: 
    - Name: 
      Entry: 7
      Data: Sirenix.OdinInspector.Demos.FPSEditor.FPSItemSlot, Assembly-CSharp
    - Name: ItemCount
      Entry: 3
      Data: 0
    - Name: Item
      Entry: 6
      Data: 
    - Name: 
      Entry: 8
      Data: 
    - Name: 
      Entry: 7
      Data: Sirenix.OdinInspector.Demos.FPSEditor.FPSItemSlot, Assembly-CSharp
    - Name: ItemCount
      Entry: 3
      Data: 0
    - Name: Item
      Entry: 6
      Data: 
    - Name: 
      Entry: 8
      Data: 
    - Name: 
      Entry: 7
      Data: Sirenix.OdinInspector.Demos.FPSEditor.FPSItemSlot, Assembly-CSharp
    - Name: ItemCount
      Entry: 3
      Data: 0
    - Name: Item
      Entry: 6
      Data: 
    - Name: 
      Entry: 8
      Data: 
    - Name: 
      Entry: 7
      Data: Sirenix.OdinInspector.Demos.FPSEditor.FPSItemSlot, Assembly-CSharp
    - Name: ItemCount
      Entry: 3
      Data: 0
    - Name: Item
      Entry: 6
      Data: 
    - Name: 
      Entry: 8
      Data: 
    - Name: 
      Entry: 7
      Data: Sirenix.OdinInspector.Demos.FPSEditor.FPSItemSlot, Assembly-CSharp
    - Name: ItemCount
      Entry: 3
      Data: 0
    - Name: Item
      Entry: 6
      Data: 
    - Name: 
      Entry: 8
      Data: 
    - Name: 
      Entry: 7
      Data: Sirenix.OdinInspector.Demos.FPSEditor.FPSItemSlot, Assembly-CSharp
    - Name: ItemCount
      Entry: 3
      Data: 0
    - Name: Item
      Entry: 6
      Data: 
    - Name: 
      Entry: 8
      Data: 
    - Name: 
      Entry: 7
      Data: Sirenix.OdinInspector.Demos.FPSEditor.FPSItemSlot, Assembly-CSharp
    - Name: ItemCount
      Entry: 3
      Data: 0
    - Name: Item
      Entry: 6
      Data: 
    - Name: 
      Entry: 8
      Data: 
    - Name: 
      Entry: 7
      Data: Sirenix.OdinInspector.Demos.FPSEditor.FPSItemSlot, Assembly-CSharp
    - Name: ItemCount
      Entry: 3
      Data: 0
    - Name: Item
      Entry: 6
      Data: 
    - Name: 
      Entry: 8
      Data: 
    - Name: 
      Entry: 7
      Data: Sirenix.OdinInspector.Demos.FPSEditor.FPSItemSlot, Assembly-CSharp
    - Name: ItemCount
      Entry: 3
      Data: 0
    - Name: Item
      Entry: 6
      Data: 
    - Name: 
      Entry: 8
      Data: 
    - Name: 
      Entry: 7
      Data: Sirenix.OdinInspector.Demos.FPSEditor.FPSItemSlot, Assembly-CSharp
    - Name: ItemCount
      Entry: 3
      Data: 0
    - Name: Item
      Entry: 6
      Data: 
    - Name: 
      Entry: 8
      Data: 
    - Name: 
      Entry: 7
      Data: Sirenix.OdinInspector.Demos.FPSEditor.FPSItemSlot, Assembly-CSharp
    - Name: ItemCount
      Entry: 3
      Data: 0
    - Name: Item
      Entry: 6
      Data: 
    - Name: 
      Entry: 8
      Data: 
    - Name: 
      Entry: 7
      Data: Sirenix.OdinInspector.Demos.FPSEditor.FPSItemSlot, Assembly-CSharp
    - Name: ItemCount
      Entry: 3
      Data: 0
    - Name: Item
      Entry: 6
      Data: 
    - Name: 
      Entry: 8
      Data: 
    - Name: 
      Entry: 7
      Data: Sirenix.OdinInspector.Demos.FPSEditor.FPSItemSlot, Assembly-CSharp
    - Name: ItemCount
      Entry: 3
      Data: 0
    - Name: Item
      Entry: 6
      Data: 
    - Name: 
      Entry: 8
      Data: 
    - Name: 
      Entry: 7
      Data: Sirenix.OdinInspector.Demos.FPSEditor.FPSItemSlot, Assembly-CSharp
    - Name: ItemCount
      Entry: 3
      Data: 0
    - Name: Item
      Entry: 6
      Data: 
    - Name: 
      Entry: 8
      Data: 
    - Name: 
      Entry: 7
      Data: Sirenix.OdinInspector.Demos.FPSEditor.FPSItemSlot, Assembly-CSharp
    - Name: ItemCount
      Entry: 3
      Data: 0
    - Name: Item
      Entry: 6
      Data: 
    - Name: 
      Entry: 8
      Data: 
    - Name: 
      Entry: 7
      Data: Sirenix.OdinInspector.Demos.FPSEditor.FPSItemSlot, Assembly-CSharp
    - Name: ItemCount
      Entry: 3
      Data: 0
    - Name: Item
      Entry: 6
      Data: 
    - Name: 
      Entry: 8
      Data: 
    - Name: 
      Entry: 7
      Data: Sirenix.OdinInspector.Demos.FPSEditor.FPSItemSlot, Assembly-CSharp
    - Name: ItemCount
      Entry: 3
      Data: 0
    - Name: Item
      Entry: 6
      Data: 
    - Name: 
      Entry: 8
      Data: 
    - Name: 
      Entry: 7
      Data: Sirenix.OdinInspector.Demos.FPSEditor.FPSItemSlot, Assembly-CSharp
    - Name: ItemCount
      Entry: 3
      Data: 0
    - Name: Item
      Entry: 6
      Data: 
    - Name: 
      Entry: 8
      Data: 
    - Name: 
      Entry: 7
      Data: Sirenix.OdinInspector.Demos.FPSEditor.FPSItemSlot, Assembly-CSharp
    - Name: ItemCount
      Entry: 3
      Data: 0
    - Name: Item
      Entry: 6
      Data: 
    - Name: 
      Entry: 8
      Data: 
    - Name: 
      Entry: 7
      Data: Sirenix.OdinInspector.Demos.FPSEditor.FPSItemSlot, Assembly-CSharp
    - Name: ItemCount
      Entry: 3
      Data: 0
    - Name: Item
      Entry: 6
      Data: 
    - Name: 
      Entry: 8
      Data: 
    - Name: 
      Entry: 7
      Data: Sirenix.OdinInspector.Demos.FPSEditor.FPSItemSlot, Assembly-CSharp
    - Name: ItemCount
      Entry: 3
      Data: 0
    - Name: Item
      Entry: 6
      Data: 
    - Name: 
      Entry: 8
      Data: 
    - Name: 
      Entry: 7
      Data: Sirenix.OdinInspector.Demos.FPSEditor.FPSItemSlot, Assembly-CSharp
    - Name: ItemCount
      Entry: 3
      Data: 0
    - Name: Item
      Entry: 6
      Data: 
    - Name: 
      Entry: 8
      Data: 
    - Name: 
      Entry: 7
      Data: Sirenix.OdinInspector.Demos.FPSEditor.FPSItemSlot, Assembly-CSharp
    - Name: ItemCount
      Entry: 3
      Data: 0
    - Name: Item
      Entry: 6
      Data: 
    - Name: 
      Entry: 8
      Data: 
    - Name: 
      Entry: 7
      Data: Sirenix.OdinInspector.Demos.FPSEditor.FPSItemSlot, Assembly-CSharp
    - Name: ItemCount
      Entry: 3
      Data: 0
    - Name: Item
      Entry: 6
      Data: 
    - Name: 
      Entry: 8
      Data: 
    - Name: 
      Entry: 7
      Data: Sirenix.OdinInspector.Demos.FPSEditor.FPSItemSlot, Assembly-CSharp
    - Name: ItemCount
      Entry: 3
      Data: 0
    - Name: Item
      Entry: 6
      Data: 
    - Name: 
      Entry: 8
      Data: 
    - Name: 
      Entry: 7
      Data: Sirenix.OdinInspector.Demos.FPSEditor.FPSItemSlot, Assembly-CSharp
    - Name: ItemCount
      Entry: 3
      Data: 0
    - Name: Item
      Entry: 6
      Data: 
    - Name: 
      Entry: 8
      Data: 
    - Name: 
      Entry: 7
      Data: Sirenix.OdinInspector.Demos.FPSEditor.FPSItemSlot, Assembly-CSharp
    - Name: ItemCount
      Entry: 3
      Data: 0
    - Name: Item
      Entry: 6
      Data: 
    - Name: 
      Entry: 8
      Data: 
    - Name: 
      Entry: 7
      Data: Sirenix.OdinInspector.Demos.FPSEditor.FPSItemSlot, Assembly-CSharp
    - Name: ItemCount
      Entry: 3
      Data: 0
    - Name: Item
      Entry: 6
      Data: 
    - Name: 
      Entry: 8
      Data: 
    - Name: 
      Entry: 7
      Data: Sirenix.OdinInspector.Demos.FPSEditor.FPSItemSlot, Assembly-CSharp
    - Name: ItemCount
      Entry: 3
      Data: 0
    - Name: Item
      Entry: 6
      Data: 
    - Name: 
      Entry: 8
      Data: 
    - Name: 
      Entry: 7
      Data: Sirenix.OdinInspector.Demos.FPSEditor.FPSItemSlot, Assembly-CSharp
    - Name: ItemCount
      Entry: 3
      Data: 0
    - Name: Item
      Entry: 6
      Data: 
    - Name: 
      Entry: 8
      Data: 
    - Name: 
      Entry: 13
      Data: 
    - Name: 
      Entry: 8
      Data: 
  Icon: {fileID: 2800000, guid: 8c5e5033fe838ef40989eeb85a513b7f, type: 3}
  Name: A
  Surname: 
  Age: 0
  CharacterAlignment: 0
  Skills:
    Stats:
      stats:
      - Type: 0
        Value: 37.673904
  StartingEquipment:
    MainHand: {fileID: 0}
    Offhand: {fileID: 0}
    Head: {fileID: 0}
    Body: {fileID: 0}
